date,original,prediction
105/04/11,0.3027522935779814,0.30160394
105/04/12,0.28623853211009154,0.29467708
105/04/13,0.30458715596330266,0.29317912
105/04/14,0.32660550458715587,0.29513353
105/04/15,0.33577981651376154,0.3036962
105/04/18,0.33394495412844005,0.31690544
105/04/19,0.33394495412844005,0.33037245
105/04/20,0.3027522935779814,0.34143928
105/04/21,0.30091743119266035,0.34739983
105/04/22,0.30091743119266035,0.34316337
105/04/25,0.30825688073394497,0.33307567
105/04/26,0.30825688073394497,0.32167658
105/04/27,0.31559633027522915,0.3131184
105/04/28,0.2807339449541284,0.30782112
105/04/29,0.2770642201834861,0.3059505
105/05/03,0.27155963302752273,0.30053356
105/05/04,0.24403669724770638,0.29322416
105/05/05,0.2201834862385319,0.2829123
105/05/06,0.2165137614678898,0.26952913
105/05/09,0.201834862385321,0.2532752
105/05/10,0.20733944954128414,0.23758069
105/05/11,0.1981651376146789,0.22567168
105/05/12,0.201834862385321,0.21950346
105/05/13,0.19633027522935742,0.21701723
105/05/16,0.18899082568807324,0.21569973
105/05/17,0.20733944954128414,0.21461272
105/05/18,0.19633027522935742,0.21574885
105/05/19,0.19082568807339428,0.21826755
105/05/20,0.2165137614678898,0.21859932
105/05/23,0.2422018348623851,0.22072881
105/05/24,0.22935779816513757,0.22653283
105/05/25,0.2422018348623851,0.23711173
105/05/26,0.24954128440366952,0.24854743
105/05/27,0.27522935779816504,0.25818086
105/05/30,0.27522935779816504,0.26636925
105/05/31,0.2807339449541284,0.27411512
105/06/01,0.27889908256880713,0.27817047
105/06/02,0.2844036697247705,0.27980545
105/06/03,0.2844036697247705,0.28030315
105/06/04,0.2844036697247705,0.2806665
105/06/06,0.2844036697247705,0.2810738
105/06/07,0.2917431192660549,0.28132233
105/06/08,0.3064220183486239,0.27944022
105/06/13,0.2660550458715596,0.2786095
105/06/14,0.27522935779816504,0.27828
105/06/15,0.27522935779816504,0.27469155
105/06/16,0.2550458715596329,0.27009287
105/06/17,0.2660550458715596,0.26557964
105/06/20,0.28256880733944945,0.26218903
105/06/21,0.2880733944954126,0.26172507
105/06/22,0.29357798165137616,0.26439568
105/06/23,0.2880733944954126,0.2695665
105/06/24,0.2422018348623851,0.27617514
105/06/27,0.24587155963302743,0.27959517
105/06/28,0.24587155963302743,0.2751448
105/06/29,0.2568807339449539,0.26650545
105/06/30,0.26788990825688064,0.2587674
105/07/01,0.2917431192660549,0.25578552
105/07/04,0.2954128440366972,0.2590431
105/07/05,0.3027522935779814,0.26936328
105/07/06,0.2660550458715596,0.28188094
105/07/07,0.2770642201834861,0.2922665
105/07/11,0.2954128440366972,0.29756355
105/07/12,0.30825688073394497,0.29949963
105/07/13,0.33027522935779796,0.30117145
105/07/14,0.33944954128440363,0.30464548
105/07/15,0.3853211009174311,0.31334278
105/07/18,0.39449541284403633,0.32637745
105/07/19,0.4128440366972477,0.34933013
105/07/20,0.39449541284403633,0.37471923
105/07/21,0.403669724770642,0.3939042
105/07/22,0.39449541284403633,0.40470064
105/07/25,0.403669724770642,0.40706927
105/07/26,0.4128440366972477,0.40633893
105/07/27,0.4128440366972477,0.40431306
105/07/28,0.4311926605504586,0.4033023
105/07/29,0.4128440366972477,0.403705
105/08/01,0.4220183486238529,0.40906137
105/08/02,0.4128440366972477,0.40724757
105/08/03,0.403669724770642,0.4098763
105/08/04,0.4128440366972477,0.41155916
105/08/05,0.4220183486238529,0.41269743
105/08/08,0.440366972477064,0.41466314
105/08/09,0.440366972477064,0.4186536
105/08/10,0.4862385321100915,0.4245146
105/08/11,0.3137614678899081,0.39713565
105/08/12,0.2623853211009173,0.34185076
105/08/15,0.25321100917431183,0.30025694
105/08/16,0.2550458715596329,0.27813187
105/08/17,0.25137614678899056,0.26875612
105/08/18,0.2623853211009173,0.2656458
105/08/19,0.2422018348623851,0.26664093
105/08/22,0.22201834862385295,0.27047104
105/08/23,0.2422018348623851,0.2711351
105/08/24,0.223853211009174,0.26906073
105/08/25,0.2422018348623851,0.26734498
105/08/26,0.23669724770642175,0.2651598
105/08/29,0.24954128440366952,0.26254115
105/08/30,0.25321100917431183,0.25985754
105/08/31,0.22568807339449504,0.25936508
105/09/01,0.21467889908256876,0.25767556
105/09/02,0.2201834862385319,0.2519871
105/09/05,0.23669724770642175,0.24361442
105/09/06,0.2568807339449539,0.23640347
105/09/07,0.2587155963302752,0.23458664
105/09/08,0.2550458715596329,0.23833452
105/09/09,0.24036697247706407,0.24478601
105/09/10,0.223853211009174,0.24872112
105/09/12,0.21284403669724772,0.24574083
105/09/13,0.20366972477064205,0.23560208
105/09/14,0.19449541284403637,0.22273088
105/09/19,0.22201834862385295,0.20883247
105/09/20,0.223853211009174,0.19886842
105/09/21,0.223853211009174,0.19658008
105/09/22,0.23119266055045862,0.20019248
105/09/23,0.24036697247706407,0.20705575
105/09/26,0.223853211009174,0.21464291
105/09/29,0.24036697247706407,0.22133203
105/09/30,0.2201834862385319,0.22549689
105/10/03,0.2165137614678898,0.22719006
105/10/04,0.2385321100917428,0.22524965
105/10/05,0.23302752293577966,0.22187394
105/10/06,0.2275229357798163,0.2186257
105/10/07,0.23302752293577966,0.21593788
105/10/11,0.22201834862385295,0.21350032
105/10/12,0.21834862385321085,0.21172392
105/10/13,0.20366972477064205,0.20831285
105/10/14,0.201834862385321,0.20408264
105/10/17,0.19082568807339428,0.19940495
105/10/18,0.21100917431192623,0.19423294
105/10/19,0.21100917431192623,0.19007915
105/10/20,0.21467889908256876,0.18968427
105/10/21,0.21100917431192623,0.19260982
105/10/24,0.20733944954128414,0.1969688
105/10/25,0.20917431192660518,0.20052272
105/10/26,0.19999999999999996,0.20191821
105/10/27,0.19999999999999996,0.20195705
105/10/28,0.1981651376146789,0.20008484
105/10/31,0.19449541284403637,0.19680563
105/11/01,0.1981651376146789,0.19324353
105/11/02,0.18899082568807324,0.19034913
105/11/03,0.17614678899082548,0.18815249
105/11/04,0.17431192660550443,0.1850747
105/11/07,0.17798165137614652,0.18108813
105/11/08,0.19082568807339428,0.177894
105/11/09,0.15779816513761458,0.17747489
105/11/10,0.17064220183486234,0.18038218
105/11/11,0.14495412844036681,0.18330799
105/11/14,0.14495412844036681,0.18306857
105/11/15,0.1486238532110089,0.17885503
105/11/16,0.14311926605504577,0.1738137
105/11/17,0.13761467889908263,0.1691623
105/11/18,0.12844036697247696,0.16410893
105/11/21,0.14128440366972472,0.15798026
105/11/22,0.16513761467889876,0.15293564
105/11/23,0.17798165137614652,0.15269798
105/11/24,0.1981651376146789,0.15956855
105/11/25,0.19449541284403637,0.17325863
105/11/28,0.19999999999999996,0.19000092
105/11/29,0.18532110091743115,0.20392048
105/11/30,0.19266055045871533,0.21241367
105/12/01,0.1981651376146789,0.2139247
105/12/02,0.1981651376146789,0.2123415
105/12/05,0.1871559633027522,0.20921072
105/12/06,0.19999999999999996,0.20525107
105/12/07,0.19449541284403637,0.20188664
105/12/08,0.21467889908256876,0.19868396
105/12/09,0.21834862385321085,0.19661534
105/12/12,0.21834862385321085,0.19791462
105/12/13,0.2275229357798163,0.2027173
105/12/14,0.20733944954128414,0.20820251
105/12/15,0.21834862385321085,0.21449158
105/12/16,0.201834862385321,0.21781583
105/12/19,0.1816513761467886,0.2180631
105/12/20,0.1816513761467886,0.21245892
105/12/21,0.17981651376146757,0.20191357
105/12/22,0.17431192660550443,0.19060692
105/12/23,0.16513761467889876,0.18007955
105/12/26,0.17798165137614652,0.17106658
105/12/27,0.17247706422018338,0.1651507
105/12/28,0.1834862385321101,0.16300169
105/12/29,0.17247706422018338,0.1637465
105/12/30,0.18899082568807324,0.1657548
106/01/03,0.1871559633027522,0.16951457
106/01/04,0.1816513761467886,0.17473164
106/01/05,0.1981651376146789,0.17999099
106/01/06,0.2055045871559631,0.18449925
106/01/09,0.1981651376146789,0.18932527
106/01/10,0.19082568807339428,0.19434506
106/01/11,0.201834862385321,0.19727337
106/01/12,0.20733944954128414,0.19772404
106/01/13,0.20366972477064205,0.19766915
106/01/16,0.20366972477064205,0.19805786
106/01/17,0.2055045871559631,0.19771211
106/01/18,0.19633027522935742,0.19666475
106/01/19,0.18899082568807324,0.19494987
106/01/20,0.19266055045871533,0.19152226
106/01/23,0.21100917431192623,0.18751287
106/01/24,0.21467889908256876,0.18651341
106/02/02,0.21284403669724772,0.18957543
106/02/03,0.20366972477064205,0.19657117
106/02/06,0.2165137614678898,0.20289487
106/02/07,0.2275229357798163,0.20764858
106/02/08,0.2348623853211007,0.21256003
106/02/09,0.24770642201834847,0.21859518
106/02/10,0.2642201834862383,0.22591989
106/02/13,0.2697247706422017,0.2351807
106/02/14,0.2642201834862383,0.2480171
106/02/15,0.27155963302752273,0.26026598
106/02/16,0.27522935779816504,0.2684158
106/02/17,0.2770642201834861,0.27338737
106/02/18,0.2770642201834861,0.27671096
106/02/20,0.2733944954128438,0.27915508
106/02/21,0.2642201834862383,0.27952126
106/02/22,0.26055045871559623,0.2768654
106/02/23,0.24587155963302743,0.2717278
106/02/24,0.2385321100917428,0.26541585
106/03/01,0.24403669724770638,0.25760895
106/03/02,0.24403669724770638,0.24800377
106/03/03,0.24036697247706407,0.2437691
106/03/06,0.24770642201834847,0.24344406
106/03/07,0.24770642201834847,0.24545813
106/03/08,0.24403669724770638,0.2487194
106/03/09,0.2201834862385319,0.25161067
106/03/10,0.22201834862385295,0.25079137
106/03/13,0.223853211009174,0.24364519
106/03/14,0.22568807339449504,0.23671073
106/03/15,0.223853211009174,0.23218551
106/03/16,0.23119266055045862,0.23059191
106/03/17,0.223853211009174,0.23109546
106/03/20,0.2422018348623851,0.2320679
106/03/21,0.24403669724770638,0.23597506
106/03/22,0.24403669724770638,0.24185205
106/03/23,0.2422018348623851,0.24692962
106/03/24,0.24587155963302743,0.25129688
106/03/27,0.24770642201834847,0.25355357
106/03/28,0.24954128440366952,0.25331244
106/03/29,0.25137614678899056,0.25143382
106/03/30,0.2587155963302752,0.24927044
106/03/31,0.26055045871559623,0.24547493
106/04/05,0.26055045871559623,0.24596457
106/04/06,0.25321100917431183,0.24829909
106/04/07,0.25321100917431183,0.25198394
106/04/10,0.24954128440366952,0.25423953
106/04/11,0.23669724770642175,0.25347722
106/04/12,0.2385321100917428,0.25002548
106/04/13,0.22201834862385295,0.2437071
106/04/14,0.21100917431192623,0.23707026
106/04/17,0.20917431192660518,0.22981909
106/04/18,0.20917431192660518,0.22247264
106/04/19,0.1981651376146789,0.21611217
106/04/20,0.19633027522935742,0.21020347
106/04/21,0.1981651376146789,0.2045725
106/04/24,0.21834862385321085,0.19948688
106/04/25,0.23302752293577966,0.1984632
106/04/26,0.2275229357798163,0.2033765
106/04/27,0.2165137614678898,0.2132796
106/04/28,0.21467889908256876,0.22249134
106/05/02,0.22568807339449504,0.22701892
106/05/03,0.23302752293577966,0.22913429
106/05/04,0.22568807339449504,0.2320433
106/05/05,0.22201834862385295,0.23385493
106/05/08,0.2165137614678898,0.23195311
106/05/09,0.20733944954128414,0.22871941
106/05/10,0.223853211009174,0.22406714
106/05/11,0.22201834862385295,0.21917231
106/05/12,0.22201834862385295,0.21724057
106/05/15,0.22568807339449504,0.21694538
106/05/16,0.223853211009174,0.21745019
106/05/17,0.23669724770642175,0.21787263
106/05/18,0.2275229357798163,0.21795303
106/05/19,0.2275229357798163,0.2183764
106/05/22,0.2201834862385319,0.2201755
106/05/23,0.22201834862385295,0.22226031
106/05/24,0.22935779816513757,0.2228519
106/05/25,0.22935779816513757,0.22349858
106/05/26,0.2348623853211007,0.22435622
106/05/31,0.23119266055045862,0.22474864
106/06/01,0.21834862385321085,0.22488452
106/06/02,0.21467889908256876,0.22564743
106/06/03,0.21834862385321085,0.22450928
106/06/05,0.2275229357798163,0.2224043
106/06/06,0.2165137614678898,0.22025947
106/06/07,0.2165137614678898,0.21873173
106/06/08,0.2165137614678898,0.21682572
106/06/09,0.21834862385321085,0.21436003
106/06/12,0.21284403669724772,0.21257189
106/06/13,0.21834862385321085,0.21179453
106/06/14,0.2165137614678898,0.21188392
106/06/15,0.20917431192660518,0.21202244
106/06/16,0.201834862385321,0.21078598
106/06/19,0.17431192660550443,0.2081621
106/06/20,0.17064220183486234,0.19260398
106/06/21,0.16146788990825667,0.17732137
106/06/22,0.18899082568807324,0.16459745
106/06/23,0.1816513761467886,0.1605989
106/06/26,0.19082568807339428,0.1669842
106/06/27,0.19266055045871533,0.17697343
106/06/28,0.19633027522935742,0.18676868
106/06/29,0.20366972477064205,0.19575986
106/06/30,0.22935779816513757,0.20359534
106/07/03,0.2385321100917428,0.20862807
106/07/04,0.24403669724770638,0.21488006
106/07/05,0.24770642201834847,0.22263405
106/07/06,0.23669724770642175,0.23268595
106/07/07,0.23669724770642175,0.24221022
106/07/10,0.23302752293577966,0.24710403
106/07/11,0.2422018348623851,0.2471067
106/07/12,0.24954128440366952,0.24334234
106/07/13,0.2568807339449539,0.23888141
106/07/14,0.2844036697247705,0.23504412
106/07/17,0.27889908256880713,0.23515701
106/07/18,0.27155963302752273,0.23963054
106/07/19,0.27155963302752273,0.24968499
106/07/20,0.26055045871559623,0.2605307
106/07/21,0.25321100917431183,0.26775724
106/07/24,0.2660550458715596,0.26788077
106/07/25,0.2660550458715596,0.26317954
106/07/26,0.24954128440366952,0.2580567
106/07/27,0.2587155963302752,0.25532025
106/07/28,0.2587155963302752,0.2529742
106/07/31,0.26055045871559623,0.25057328
106/08/01,0.2660550458715596,0.24795493
106/08/02,0.2697247706422017,0.24671078
106/08/03,0.2623853211009173,0.24736322
106/08/04,0.2642201834862383,0.24873856
106/08/07,0.2660550458715596,0.25031704
106/08/08,0.26788990825688064,0.25197917
106/08/09,0.26788990825688064,0.25323015
106/08/10,0.24587155963302743,0.25402847
106/08/11,0.24587155963302743,0.25434572
106/08/14,0.2422018348623851,0.25227025
106/08/15,0.2385321100917428,0.2487979
106/08/16,0.2422018348623851,0.24500693
106/08/17,0.24403669724770638,0.24012221
106/08/18,0.24036697247706407,0.23691447
106/08/21,0.23669724770642175,0.23517893
106/08/22,0.2660550458715596,0.23370174
106/08/23,0.25321100917431183,0.23502487
106/08/24,0.2660550458715596,0.24130483
106/08/25,0.2660550458715596,0.24855293
106/08/28,0.27889908256880713,0.25537884
106/08/29,0.27889908256880713,0.26113626
106/08/30,0.28623853211009154,0.26695192
106/08/31,0.3027522935779814,0.2718412
106/09/01,0.2917431192660549,0.27658963
106/09/04,0.30458715596330266,0.28463784
106/09/05,0.30825688073394497,0.29237688
106/09/06,0.30825688073394497,0.29784223
106/09/07,0.30825688073394497,0.30108467
106/09/08,0.3064220183486239,0.30131307
106/09/11,0.310091743119266,0.3017091
106/09/12,0.310091743119266,0.30095237
106/09/13,0.30825688073394497,0.30104518
106/09/14,0.30825688073394497,0.29959014
106/09/15,0.3064220183486239,0.2971075
106/09/18,0.1981651376146789,0.27652317
106/09/19,0.19999999999999996,0.2255439
106/09/20,0.19449541284403637,0.193323
106/09/21,0.18899082568807324,0.17936942
106/09/22,0.19449541284403637,0.1803064
106/09/25,0.19449541284403637,0.18584087
106/09/26,0.19266055045871533,0.19259644
106/09/27,0.19082568807339428,0.19974142
106/09/28,0.18532110091743115,0.20580114
106/09/29,0.18899082568807324,0.20806213
106/09/30,0.18899082568807324,0.20693631
106/10/02,0.19449541284403637,0.2055876
106/10/03,0.19633027522935742,0.20410481
106/10/05,0.201834862385321,0.20264584
106/10/06,0.20366972477064205,0.2024517
106/10/11,0.20733944954128414,0.20347792
106/10/12,0.2055045871559631,0.20463513
106/10/13,0.2055045871559631,0.2054784
106/10/16,0.21467889908256876,0.20584682
106/10/17,0.22568807339449504,0.20607287
106/10/18,0.21834862385321085,0.20792748
106/10/19,0.2201834862385319,0.21169752
106/10/20,0.22201834862385295,0.21441351
106/10/23,0.2201834862385319,0.21661904
106/10/24,0.223853211009174,0.21816526
106/10/25,0.223853211009174,0.21800879
106/10/26,0.2275229357798163,0.21622437
106/10/27,0.22935779816513757,0.2137543
106/10/30,0.2201834862385319,0.21162012
106/10/31,0.2201834862385319,0.2106369
106/11/01,0.22201834862385295,0.20883496
106/11/02,0.22201834862385295,0.20723388
106/11/03,0.223853211009174,0.20598075
106/11/06,0.223853211009174,0.2052618
106/11/07,0.2275229357798163,0.20474838
106/11/08,0.2275229357798163,0.20474666
106/11/09,0.22935779816513757,0.20503227
106/11/10,0.22935779816513757,0.20578086
106/11/13,0.223853211009174,0.2069748
106/11/14,0.223853211009174,0.2086108
106/11/15,0.22568807339449504,0.209838
106/11/16,0.22568807339449504,0.21051517
106/11/17,0.22935779816513757,0.21085489
106/11/20,0.2275229357798163,0.21097752
106/11/21,0.24587155963302743,0.21197376
106/11/22,0.24954128440366952,0.21465664
106/11/23,0.24770642201834847,0.22117239
106/11/24,0.23119266055045862,0.23031479
106/11/27,0.22935779816513757,0.23837334
106/11/28,0.23302752293577966,0.24048851
106/11/29,0.23302752293577966,0.23805119
106/11/30,0.2348623853211007,0.23395675
106/12/01,0.23669724770642175,0.22986327
106/12/04,0.2623853211009173,0.22801171
106/12/05,0.2568807339449539,0.22952825
106/12/06,0.24036697247706407,0.23640995
106/12/07,0.24587155963302743,0.24753878
106/12/08,0.24036697247706407,0.2567035
106/12/11,0.24403669724770638,0.26092586
106/12/12,0.24770642201834847,0.26102626
106/12/13,0.27522935779816504,0.25835362
106/12/14,0.2807339449541284,0.25805792
106/12/15,0.27889908256880713,0.26321888
106/12/18,0.2733944954128438,0.27105626
106/12/19,0.2770642201834861,0.27989438
106/12/20,0.27889908256880713,0.2856541
106/12/21,0.2844036697247705,0.2877704
106/12/22,0.30091743119266035,0.28823754
106/12/25,0.2954128440366972,0.2888693
106/12/26,0.2807339449541284,0.29192957
106/12/27,0.2733944954128438,0.29423407
106/12/28,0.28256880733944945,0.29217264
106/12/29,0.29724770642201825,0.28772923
107/01/02,0.3027522935779814,0.28438848
107/01/03,0.31192660550458706,0.2844253
107/01/04,0.30825688073394497,0.2878795
107/01/05,0.32110091743119273,0.2936845
107/01/08,0.35779816513761453,0.30009443
107/01/09,0.3522935779816514,0.30965912
107/01/10,0.3522935779816514,0.32413805
107/01/11,0.3284403669724769,0.33838856
107/01/12,0.35045871559633035,0.3468484
107/01/15,0.35779816513761453,0.34830767
107/01/16,0.37614678899082543,0.34956726
107/01/17,0.3853211009174311,0.35231757
107/01/18,0.3853211009174311,0.35763863
107/01/19,0.39449541284403633,0.36556935
107/01/22,0.39449541284403633,0.37373927
107/01/23,0.37614678899082543,0.38026077
107/01/24,0.3669724770642202,0.3837148
107/01/25,0.37614678899082543,0.3807451
107/01/26,0.37614678899082543,0.37503332
107/01/29,0.37614678899082543,0.37246513
107/01/30,0.3559633027522935,0.37145412
107/01/31,0.3669724770642202,0.37189376
107/02/01,0.35779816513761453,0.37007672
107/02/02,0.3669724770642202,0.37028685
107/02/05,0.332110091743119,0.37098187
107/02/06,0.27155963302752273,0.36584392
107/02/07,0.31192660550458706,0.3467975
107/02/08,0.3027522935779814,0.32993716
107/02/09,0.2844036697247705,0.32210365
107/02/12,0.30458715596330266,0.31544682
107/02/21,0.35779816513761453,0.3155993
107/02/22,0.37614678899082543,0.32633644
107/02/23,0.3853211009174311,0.3452549
107/02/26,0.39449541284403633,0.36697924
107/02/27,0.37614678899082543,0.38570994
107/03/01,0.3669724770642202,0.39929247
107/03/02,0.3669724770642202,0.40428236
107/03/05,0.3522935779816514,0.399931
107/03/06,0.3669724770642202,0.39235514
107/03/07,0.37614678899082543,0.3859868
107/03/08,0.3669724770642202,0.3798952
107/03/09,0.3669724770642202,0.37583637
107/03/12,0.3853211009174311,0.37388104
107/03/13,0.44954128440366947,0.37322327
107/03/14,0.45871559633027514,0.37175578
107/03/15,0.45871559633027514,0.38839707
107/03/16,0.5045871559633028,0.41594064
107/03/19,0.4862385321100915,0.43621886
107/03/20,0.4678899082568806,0.4596052
107/03/21,0.44954128440366947,0.47373468
107/03/22,0.4678899082568806,0.47668493
107/03/23,0.4220183486238529,0.47082394
107/03/26,0.440366972477064,0.45603013
107/03/27,0.44954128440366947,0.4417699
107/03/28,0.4311926605504586,0.4363671
107/03/29,0.4128440366972477,0.43586683
107/03/30,0.4311926605504586,0.434036
107/03/31,0.4220183486238529,0.43174213
107/04/02,0.4128440366972477,0.43175095
107/04/03,0.403669724770642,0.43192855
107/04/09,0.4311926605504586,0.42805228
107/04/10,0.4678899082568806,0.4252847
107/04/11,0.4678899082568806,0.42962062
107/04/12,0.4678899082568806,0.44165623
107/04/13,0.4678899082568806,0.4572396
107/04/16,0.44954128440366947,0.4699387
107/04/17,0.4311926605504586,0.47493568
107/04/18,0.44954128440366947,0.47282445
107/04/19,0.4678899082568806,0.46614563
107/04/20,0.4678899082568806,0.4606911
107/04/23,0.4678899082568806,0.45920613
107/04/24,0.45871559633027514,0.46144158
107/04/25,0.45871559633027514,0.4638933
107/04/26,0.4678899082568806,0.46487507
107/04/27,0.4678899082568806,0.4671013
107/04/30,0.4862385321100915,0.47035044
107/05/02,0.4862385321100915,0.4739585
107/05/03,0.4678899082568806,0.48061568
107/05/04,0.45871559633027514,0.48614514
107/05/07,0.44954128440366947,0.48615813
107/05/08,0.45871559633027514,0.48308063
107/05/09,0.44954128440366947,0.47890177
107/05/10,0.45871559633027514,0.4730433
107/05/11,0.4862385321100915,0.468945
107/05/14,0.49541284403669716,0.47025633
107/05/15,0.47706422018348627,0.4779331
107/05/16,0.4862385321100915,0.48820758
107/05/17,0.47706422018348627,0.49471778
107/05/18,0.49541284403669716,0.49939525
107/05/21,0.5137614678899081,0.50121856
107/05/22,0.5137614678899081,0.5072547
107/05/23,0.5045871559633028,0.5167669
107/05/24,0.5229357798165135,0.5253022
107/05/25,0.5412844036697249,0.5299152
107/05/28,0.5412844036697249,0.5348172
107/05/29,0.5321100917431192,0.54226565
107/05/30,0.4862385321100915,0.54814184
107/05/31,0.5596330275229358,0.5458951
107/06/01,0.5596330275229358,0.5381751
107/06/04,0.5688073394495414,0.5411643
107/06/05,0.596330275229358,0.5538517
107/06/06,0.596330275229358,0.5696374
107/06/07,0.6238532110091741,0.58774686
107/06/08,0.6238532110091741,0.6039829
107/06/11,0.6146788990825689,0.619864
107/06/12,0.6055045871559632,0.62824714
107/06/13,0.6055045871559632,0.63046455
107/06/14,0.5871559633027523,0.62796766
107/06/15,0.5779816513761467,0.6223639
107/06/19,0.5596330275229358,0.6069573
107/06/20,0.5688073394495414,0.5943837
107/06/21,0.5688073394495414,0.59015465
107/06/22,0.5596330275229358,0.59352684
107/06/25,0.5688073394495414,0.59817636
107/06/26,0.5596330275229358,0.6037187
107/06/27,0.5412844036697249,0.6069388
107/06/28,0.5045871559633028,0.60845566
107/06/29,0.5412844036697249,0.5952835
107/07/02,0.5321100917431192,0.5816839
107/07/03,0.5137614678899081,0.57885337
107/07/04,0.5321100917431192,0.57980704
107/07/05,0.5137614678899081,0.58018893
107/07/06,0.5137614678899081,0.58008933
107/07/09,0.5504587155963301,0.5765385
107/07/10,0.5688073394495414,0.57560074
107/07/11,0.5504587155963301,0.5814588
107/07/12,0.5688073394495414,0.5862148
107/07/13,0.5779816513761467,0.5908202
107/07/16,0.5596330275229358,0.5969138
107/07/17,0.5596330275229358,0.6028961
107/07/18,0.5596330275229358,0.60375524
107/07/19,0.5596330275229358,0.60184336
107/07/20,0.5688073394495414,0.59784377
107/07/23,0.5779816513761467,0.5928867
107/07/24,0.5779816513761467,0.58971447
107/07/25,0.5779816513761467,0.5894972
107/07/26,0.6238532110091741,0.5924138
107/07/27,0.6146788990825689,0.59884906
107/07/30,0.6146788990825689,0.6114026
107/07/31,0.6330275229357798,0.62400186
107/08/01,0.6513761467889907,0.6327114
107/08/02,0.6146788990825689,0.6414381
107/08/03,0.6422018348623855,0.6514938
107/08/06,0.6055045871559632,0.656177
107/08/07,0.6146788990825689,0.6529217
107/08/08,0.6330275229357798,0.64480567
107/08/09,0.6330275229357798,0.6355509
107/08/10,0.6330275229357798,0.63501203
107/08/13,0.6055045871559632,0.6139248
107/08/14,0.6238532110091741,0.6064693
107/08/15,0.4862385321100915,0.5820532
107/08/16,0.47706422018348627,0.5470052
107/08/17,0.5137614678899081,0.5232068
107/08/20,0.5504587155963301,0.51616913
107/08/21,0.5504587155963301,0.52554446
107/08/22,0.5412844036697249,0.54717565
107/08/23,0.5229357798165135,0.56918454
107/08/24,0.49541284403669716,0.5831213
107/08/27,0.5137614678899081,0.58444226
107/08/28,0.5504587155963301,0.5798756
107/08/29,0.5688073394495414,0.5777321
107/08/30,0.5596330275229358,0.58212996
107/08/31,0.5871559633027523,0.5911089
107/09/03,0.5596330275229358,0.5975722
107/09/04,0.5596330275229358,0.60372996
107/09/05,0.5229357798165135,0.606487
107/09/06,0.5504587155963301,0.6020046
107/09/07,0.5229357798165135,0.5922279
107/09/10,0.5229357798165135,0.58207
107/09/11,0.5321100917431192,0.57224977
107/09/12,0.5504587155963301,0.5420551
107/09/13,0.5688073394495414,0.5144194
107/09/14,0.5779816513761467,0.519593
107/09/17,0.5779816513761467,0.53898233
107/09/18,0.5688073394495414,0.5630141
107/09/19,0.5871559633027523,0.5804665
107/09/20,0.5871559633027523,0.59043574
107/09/21,0.596330275229358,0.5976411
107/09/25,0.596330275229358,0.6003108
107/09/26,0.5688073394495414,0.60223925
107/09/27,0.5871559633027523,0.6026721
107/09/28,0.5688073394495414,0.5988637
107/10/01,0.5688073394495414,0.5922878
107/10/02,0.5596330275229358,0.5885206
107/10/03,0.5504587155963301,0.5857165
107/10/04,0.5412844036697249,0.58246607
107/10/05,0.5229357798165135,0.57575595
107/10/08,0.5321100917431192,0.5672991
107/10/09,0.5321100917431192,0.5583929
107/10/11,0.403669724770642,0.5523475
107/10/12,0.4311926605504586,0.532001
107/10/15,0.39449541284403633,0.5011894
107/10/16,0.4128440366972477,0.47603065
107/10/17,0.4220183486238529,0.45802933
107/10/18,0.4128440366972477,0.4522249
107/10/19,0.4128440366972477,0.45265836
107/10/22,0.4220183486238529,0.45298743
107/10/23,0.39449541284403633,0.45398372
107/10/24,0.3853211009174311,0.45414865
107/10/25,0.3559633027522935,0.44867513
107/10/26,0.37614678899082543,0.43449706
107/10/29,0.37614678899082543,0.42164075
107/10/30,0.3853211009174311,0.41465193
107/10/31,0.44954128440366947,0.41226745
107/11/01,0.4128440366972477,0.41854933
107/11/02,0.4311926605504586,0.4291714
107/11/05,0.440366972477064,0.4403119
107/11/06,0.440366972477064,0.44988656
107/11/07,0.4678899082568806,0.46021008
107/11/08,0.4862385321100915,0.46884394
107/11/09,0.4862385321100915,0.47828746
107/11/12,0.4678899082568806,0.4872033
107/11/13,0.47706422018348627,0.4925568
107/11/14,0.4862385321100915,0.48745117
107/11/15,0.47706422018348627,0.48323727
107/11/16,0.4862385321100915,0.48288983
107/11/19,0.5045871559633028,0.4855589
107/11/20,0.4862385321100915,0.49012595
107/11/21,0.4862385321100915,0.49380702
107/11/22,0.4678899082568806,0.4925997
107/11/23,0.4862385321100915,0.48943657
107/11/26,0.4862385321100915,0.48417974
107/11/27,0.45871559633027514,0.48204333
107/11/28,0.4862385321100915,0.48059368
107/11/29,0.44954128440366947,0.47971863
107/11/30,0.47706422018348627,0.48189276
107/12/03,0.49541284403669716,0.47991216
107/12/04,0.49541284403669716,0.4813895
107/12/05,0.4678899082568806,0.48547682
107/12/06,0.4311926605504586,0.48926663
107/12/07,0.440366972477064,0.48971456
107/12/10,0.4128440366972477,0.48317546
107/12/11,0.3853211009174311,0.46990153
107/12/12,0.4128440366972477,0.45320007
107/12/13,0.4220183486238529,0.43789238
107/12/14,0.403669724770642,0.4290362
107/12/17,0.403669724770642,0.4260222
107/12/18,0.37614678899082543,0.42674547
107/12/19,0.4128440366972477,0.42799938
107/12/20,0.39449541284403633,0.43019772
107/12/21,0.39449541284403633,0.43170822
107/12/22,0.39449541284403633,0.43320385
107/12/24,0.39449541284403633,0.43416336
107/12/25,0.3853211009174311,0.43259513
107/12/26,0.37614678899082543,0.42648265
107/12/27,0.403669724770642,0.419996
107/12/28,0.4128440366972477,0.41568968
108/01/02,0.3853211009174311,0.41590822
108/01/03,0.39449541284403633,0.42050457
108/01/04,0.3669724770642202,0.4221974
108/01/07,0.4311926605504586,0.4184634
108/01/08,0.403669724770642,0.41687936
108/01/09,0.44954128440366947,0.4215874
108/01/10,0.4311926605504586,0.42860216
108/01/11,0.4311926605504586,0.43673038
108/01/14,0.4220183486238529,0.43758196
108/01/15,0.440366972477064,0.43952066
108/01/16,0.4220183486238529,0.44205683
108/01/17,0.4220183486238529,0.44314998
108/01/18,0.440366972477064,0.4421155
108/01/21,0.4311926605504586,0.4410435
108/01/22,0.4220183486238529,0.4406844
108/01/23,0.4311926605504586,0.43957177
108/01/24,0.403669724770642,0.43877494
108/01/25,0.4311926605504586,0.43687108
108/01/28,0.4220183486238529,0.4342196
108/01/29,0.4311926605504586,0.43377
108/01/30,0.4220183486238529,0.43317485
108/02/11,0.4311926605504586,0.43261057
108/02/12,0.4311926605504586,0.43524027
108/02/13,0.440366972477064,0.44006738
108/02/14,0.440366972477064,0.44512355
108/02/15,0.45871559633027514,0.4518118
108/02/18,0.4862385321100915,0.46175748
108/02/19,0.47706422018348627,0.47584683
108/02/20,0.4862385321100915,0.48997608
108/02/21,0.49541284403669716,0.4989578
108/02/22,0.4862385321100915,0.50498223
108/02/25,0.49541284403669716,0.5076839
108/02/26,0.49541284403669716,0.5100667
108/02/27,0.49541284403669716,0.5126621
108/03/04,0.5137614678899081,0.51476437
108/03/05,0.5045871559633028,0.5148375
108/03/06,0.5137614678899081,0.5178866
108/03/07,0.5045871559633028,0.5229719
108/03/08,0.5045871559633028,0.52863735
108/03/11,0.5229357798165135,0.5318284
108/03/12,0.5321100917431192,0.5340465
108/03/13,0.5229357798165135,0.5387935
108/03/14,0.5137614678899081,0.54579276
108/03/15,0.49541284403669716,0.55179274
108/03/18,0.5321100917431192,0.54438764
108/03/19,0.5321100917431192,0.53899735
108/03/20,0.5412844036697249,0.5395961
108/03/21,0.5779816513761467,0.5445597
108/03/22,0.5779816513761467,0.55322605
108/03/25,0.5779816513761467,0.56764746
108/03/26,0.596330275229358,0.5760822
108/03/27,0.5871559633027523,0.5876572
108/03/28,0.596330275229358,0.5988304
108/03/29,0.6146788990825689,0.6073388
108/04/01,0.6055045871559632,0.61429334
108/04/02,0.6238532110091741,0.62166095
108/04/03,0.6238532110091741,0.6288316
108/04/08,0.6330275229357798,0.635836
108/04/09,0.6422018348623855,0.64024055
108/04/10,0.6422018348623855,0.64709234
108/04/11,0.6605504587155964,0.65302885
108/04/12,0.6605504587155964,0.6571137
108/04/15,0.6788990825688073,0.6652738
108/04/16,0.6788990825688073,0.67688656
108/04/17,0.6605504587155964,0.68966347
108/04/18,0.6513761467889907,0.7007318
108/04/19,0.6513761467889907,0.6992493
108/04/22,0.6422018348623855,0.6967249
108/04/23,0.6697247706422016,0.6940911
108/04/24,0.6697247706422016,0.6908378
108/04/25,0.6697247706422016,0.6919411
108/04/26,0.6788990825688073,0.6970058
108/04/29,0.7155963302752291,0.7014268
108/04/30,0.7064220183486238,0.7078688
108/05/02,0.7247706422018347,0.72180355
108/05/03,0.7339449541284404,0.7329439
108/05/06,0.6972477064220182,0.74182856
108/05/07,0.6972477064220182,0.74688673
108/05/08,0.6972477064220182,0.74654585
108/05/09,0.6788990825688073,0.74175394
108/05/10,0.6972477064220182,0.7333799
108/05/13,0.6788990825688073,0.730602
108/05/14,0.6513761467889907,0.7316342
108/05/15,0.6788990825688073,0.7250736
108/05/16,0.6880733944954129,0.7211355
108/05/17,0.6880733944954129,0.7229487
108/05/20,0.6972477064220182,0.72848713
108/05/21,0.7339449541284404,0.73449
108/05/22,0.7339449541284404,0.7425437
108/05/23,0.7247706422018347,0.75425804
108/05/24,0.7614678899082565,0.7631953
108/05/27,0.7706422018348622,0.76692307
108/05/28,0.7431192660550456,0.77862996
108/05/29,0.7247706422018347,0.7805194
108/05/30,0.7614678899082565,0.7801505
108/05/31,0.7706422018348622,0.7758873
108/06/03,0.7798165137614679,0.7781829
108/06/04,0.7889908256880731,0.7846789
108/06/05,0.7798165137614679,0.79338294
108/06/06,0.8165137614678897,0.8051774
108/06/10,0.807339449541284,0.8152339
108/06/11,0.7981651376146788,0.82669586
108/06/12,0.7798165137614679,0.8345857
108/06/13,0.807339449541284,0.83314943
108/06/14,0.7981651376146788,0.832608
108/06/17,0.807339449541284,0.8355793
108/06/18,0.8256880733944953,0.8397504
108/06/19,0.8715596330275228,0.8443004
108/06/20,0.8990825688073394,0.8484414
108/06/21,0.8715596330275228,0.8666203
108/06/24,0.9082568807339446,0.8788566
108/06/25,0.9082568807339446,0.89476854
108/06/26,0.8899082568807337,0.9084521
108/06/27,0.9082568807339446,0.9172023
108/06/28,0.9174311926605503,0.9185019
108/07/01,0.9082568807339446,0.9198989
108/07/02,0.9082568807339446,0.92141116
108/07/03,0.8899082568807337,0.9206977
108/07/04,0.9082568807339446,0.92220336
108/07/05,0.9174311926605503,0.91989964
108/07/08,0.9174311926605503,0.9206445
108/07/09,0.8990825688073394,0.9246093
108/07/10,0.9082568807339446,0.927469
108/07/11,0.8440366972477062,0.90663415
108/07/12,0.8165137614678897,0.87018967
108/07/15,0.8256880733944953,0.8567453
108/07/16,0.8348623853211006,0.85484374
108/07/17,0.8440366972477062,0.8554971
108/07/18,0.8440366972477062,0.8579736
108/07/19,0.8440366972477062,0.8641038
108/07/22,0.8348623853211006,0.87248665
108/07/23,0.8165137614678897,0.87729
108/07/24,0.807339449541284,0.87405556
108/07/25,0.8348623853211006,0.8655169
108/07/26,0.807339449541284,0.860041
108/07/29,0.807339449541284,0.85670877
108/07/30,0.807339449541284,0.85267144
108/07/31,0.7981651376146788,0.85113597
108/08/01,0.7706422018348622,0.8475624
108/08/02,0.7339449541284404,0.8397396
108/08/05,0.7339449541284404,0.8212471
108/08/06,0.7247706422018347,0.7999667
108/08/07,0.7155963302752291,0.78458536
108/08/08,0.7155963302752291,0.7771698
108/08/12,0.807339449541284,0.77766484
108/08/13,0.7798165137614679,0.78861845
108/08/14,0.7798165137614679,0.8107631
108/08/15,0.7522935779816513,0.8256122
108/08/16,0.7981651376146788,0.8257581
108/08/19,0.7889908256880731,0.8239185
108/08/20,0.7889908256880731,0.83121127
108/08/21,0.7889908256880731,0.8359999
108/08/22,0.7981651376146788,0.83693373
108/08/23,0.7798165137614679,0.84025043
108/08/26,0.7247706422018347,0.8405911
108/08/27,0.7155963302752291,0.8290494
108/08/28,0.7064220183486238,0.808615
108/08/29,0.6788990825688073,0.79581165
108/08/30,0.6972477064220182,0.7826518
108/09/02,0.7155963302752291,0.7633778
108/09/03,0.7155963302752291,0.7591973
108/09/04,0.7431192660550456,0.76616734
108/09/05,0.7614678899082565,0.7772138
108/09/06,0.7889908256880731,0.7900396
108/09/09,0.8165137614678897,0.80542815
108/09/10,0.8256880733944953,0.8237472
108/09/11,0.8165137614678897,0.8412776
108/09/12,0.807339449541284,0.8544377
108/09/16,0.807339449541284,0.8602483
108/09/17,0.8165137614678897,0.8595235
108/09/18,0.8348623853211006,0.8551176
108/09/19,0.8256880733944953,0.8547985
108/09/20,0.807339449541284,0.8614156
108/09/23,0.7706422018348622,0.85632336
108/09/24,0.7798165137614679,0.84672135
108/09/25,0.7614678899082565,0.834786
108/09/26,0.7798165137614679,0.81710577
108/09/27,0.7431192660550456,0.81016064
108/10/01,0.7614678899082565,0.8101387
108/10/02,0.7522935779816513,0.8080855
108/10/03,0.7522935779816513,0.8064643
108/10/04,0.7522935779816513,0.8043944
108/10/07,0.7614678899082565,0.8054341
108/10/08,0.7706422018348622,0.8098869
108/10/09,0.7431192660550456,0.8116114
108/10/14,0.7798165137614679,0.8165165
108/10/15,0.7798165137614679,0.82219917
108/10/16,0.7889908256880731,0.82611585
108/10/17,0.7798165137614679,0.8319988
108/10/18,0.7889908256880731,0.83555377
108/10/21,0.807339449541284,0.8373506
108/10/22,0.8256880733944953,0.84035224
108/10/23,0.7981651376146788,0.84742045
108/10/24,0.8165137614678897,0.85490495
108/10/25,0.8348623853211006,0.85725605
108/10/28,0.8256880733944953,0.8605572
108/10/29,0.8256880733944953,0.8656317
108/10/30,0.8348623853211006,0.86933184
108/10/31,0.8165137614678897,0.86917347
108/11/01,0.8256880733944953,0.8682946
108/11/04,0.8348623853211006,0.8678074
108/11/05,0.8440366972477062,0.8679968
108/11/06,0.8532110091743115,0.8679783
108/11/07,0.8348623853211006,0.8738056
108/11/08,0.8532110091743115,0.8827503
108/11/11,0.8532110091743115,0.89051
108/11/12,0.8532110091743115,0.8925513
108/11/13,0.8623853211009171,0.89435107
108/11/14,0.8715596330275228,0.893626
108/11/15,0.8899082568807337,0.8958396
108/11/18,0.8899082568807337,0.90196705
108/11/19,0.8899082568807337,0.90952903
108/11/20,0.8899082568807337,0.9154652
108/11/21,0.8899082568807337,0.91858166
108/11/22,0.8715596330275228,0.9190637
108/11/25,0.8715596330275228,0.92127025
108/11/26,0.880733944954128,0.91988444
108/11/27,0.9082568807339446,0.91056556
108/11/28,0.9174311926605503,0.91424096
108/11/29,0.880733944954128,0.92224354
108/12/02,0.880733944954128,0.92978704
108/12/03,0.8990825688073394,0.9298387
108/12/04,0.8990825688073394,0.9274441
108/12/05,0.8990825688073394,0.9246398
108/12/06,0.8990825688073394,0.92286706
108/12/09,0.880733944954128,0.9269817
108/12/10,0.8715596330275228,0.928191
108/12/11,0.8899082568807337,0.92464346
108/12/12,0.8990825688073394,0.9217769
108/12/13,0.9174311926605503,0.92275995
108/12/16,0.9174311926605503,0.92291135
108/12/17,0.926605504587156,0.9324026
108/12/18,0.9357798165137616,0.93957627
108/12/19,0.9357798165137616,0.94364125
108/12/20,0.9541284403669725,0.95100284
108/12/23,0.9541284403669725,0.95141476
108/12/24,0.9357798165137616,0.9594184
108/12/25,0.926605504587156,0.9673716
108/12/26,0.926605504587156,0.9708383
108/12/27,0.9449541284403669,0.970056
108/12/30,0.9357798165137616,0.9722711
108/12/31,0.9082568807339446,0.9732771
109/01/02,0.9174311926605503,0.97268766
109/01/03,0.9174311926605503,0.97072864
109/01/06,0.9082568807339446,0.9655012
109/01/07,0.9082568807339446,0.9594665
109/01/08,0.8990825688073394,0.95257366
109/01/09,0.926605504587156,0.94526505
109/01/10,0.9357798165137616,0.94568044
109/01/13,0.9174311926605503,0.9532454
109/01/14,0.9357798165137616,0.9511687
109/01/15,0.9449541284403669,0.95225346
109/01/16,0.9449541284403669,0.95408773
109/01/17,0.9724770642201834,0.95754784
109/01/20,1.0,0.96191216
109/01/30,0.8715596330275228,0.9726592
109/01/31,0.8899082568807337,0.95221305
109/02/03,0.9082568807339446,0.92941964
109/02/04,0.926605504587156,0.9072103
109/02/05,0.9174311926605503,0.9045282
109/02/06,0.9357798165137616,0.91478556
109/02/07,0.9174311926605503,0.92079234
109/02/10,0.926605504587156,0.9293609
109/02/11,0.926605504587156,0.9308301
109/02/12,0.9174311926605503,0.9339433
109/02/13,0.9174311926605503,0.93377066
109/02/14,0.926605504587156,0.9349666
109/02/17,0.926605504587156,0.9372908
109/02/18,0.926605504587156,0.93977183
109/02/19,0.9633027522935782,0.9404909
109/02/20,0.9357798165137616,0.9419861
109/02/21,0.926605504587156,0.945172
109/02/24,0.9082568807339446,0.9427324
109/02/25,0.9082568807339446,0.9273359
109/02/26,0.9174311926605503,0.9140205
109/02/27,0.9082568807339446,0.9050354
109/03/02,0.9082568807339446,0.89779866
109/03/03,0.9174311926605503,0.89100236
109/03/04,0.9082568807339446,0.89593506
109/03/05,0.8899082568807337,0.89642644
109/03/06,0.8715596330275228,0.8850233
109/03/09,0.8256880733944953,0.8680975
109/03/10,0.8165137614678897,0.84099585
109/03/11,0.7889908256880731,0.8194657
109/03/12,0.6788990825688073,0.809717
109/03/13,0.596330275229358,0.7857603
109/03/16,0.4862385321100915,0.727345
109/03/17,0.4128440366972477,0.6893673
109/03/18,0.37614678899082543,0.63940084
109/03/19,0.2990825688073393,0.5987961
109/03/20,0.4678899082568806,0.5543661
109/03/23,0.37614678899082543,0.53656423
109/03/24,0.4220183486238529,0.5452597
109/03/25,0.5137614678899081,0.57306886
109/03/26,0.5321100917431192,0.6069274
109/03/27,0.5504587155963301,0.63903344
109/03/30,0.5229357798165135,0.66390604
109/03/31,0.5504587155963301,0.6682577
109/04/01,0.5412844036697249,0.6636709
109/04/06,0.5504587155963301,0.6554458
109/04/07,0.5596330275229358,0.64418447
109/04/08,0.5871559633027523,0.6398562
109/04/09,0.596330275229358,0.63914144
109/04/10,0.6513761467889907,0.6468289
109/04/13,0.596330275229358,0.6612687
109/04/14,0.6422018348623855,0.6707109
109/04/15,0.7064220183486238,0.67632216
109/04/16,0.6880733944954129,0.68726003
109/04/17,0.7064220183486238,0.7009572
109/04/20,0.7064220183486238,0.72057974
109/04/21,0.6146788990825689,0.73061025
109/04/22,0.6055045871559632,0.72570395
109/04/23,0.596330275229358,0.69805217
109/04/24,0.5871559633027523,0.6706054
109/04/27,0.6330275229357798,0.6495831
109/04/28,0.6422018348623855,0.6431447
109/04/29,0.6788990825688073,0.6502992
109/04/30,0.7614678899082565,0.6688372
109/05/04,0.6697247706422016,0.6972283
109/05/05,0.6697247706422016,0.7097331
109/05/06,0.6330275229357798,0.7171929
109/05/07,0.6422018348623855,0.7111434
109/05/08,0.6422018348623855,0.7014043
109/05/11,0.6880733944954129,0.6951606
109/05/12,0.6880733944954129,0.69720805
109/05/13,0.6880733944954129,0.70312
109/05/14,0.6697247706422016,0.7131094
109/05/15,0.6605504587155964,0.71708095
109/05/18,0.6330275229357798,0.7176284
109/05/19,0.6697247706422016,0.71038544
109/05/20,0.6605504587155964,0.70428854
109/05/21,0.6880733944954129,0.7041363
109/05/22,0.6422018348623855,0.70614636
109/05/25,0.6513761467889907,0.704404
109/05/26,0.6788990825688073,0.7007415
109/05/27,0.6880733944954129,0.69823444
109/05/28,0.6788990825688073,0.7028489
109/05/29,0.6880733944954129,0.7138078
109/06/01,0.7155963302752291,0.7024807
109/06/02,0.7431192660550456,0.70607144
109/06/03,0.7614678899082565,0.72049487
109/06/04,0.7614678899082565,0.73709977
109/06/05,0.7614678899082565,0.7529656
109/06/08,0.7798165137614679,0.75953674
109/06/09,0.7706422018348622,0.7570175
109/06/10,0.7889908256880731,0.7503684
109/06/11,0.6238532110091741,0.7214315
109/06/12,0.5779816513761467,0.646558
109/06/15,0.5504587155963301,0.59126496
109/06/16,0.5871559633027523,0.5658765
109/06/17,0.5871559633027523,0.5676314
109/06/18,0.5596330275229358,0.5785408
109/06/19,0.5412844036697249,0.587842
109/06/22,0.5596330275229358,0.5792553
109/06/23,0.5504587155963301,0.5755012
109/06/24,0.5596330275229358,0.5734556
109/06/29,0.5229357798165135,0.5733429
109/06/30,0.5137614678899081,0.5675938
109/07/01,0.5229357798165135,0.55936503
109/07/02,0.5229357798165135,0.5547075
109/07/03,0.5229357798165135,0.5413271
109/07/06,0.5688073394495414,0.53803825
109/07/07,0.5596330275229358,0.5396911
109/07/08,0.5504587155963301,0.5451172
109/07/09,0.5412844036697249,0.55093485
109/07/10,0.5321100917431192,0.55557275
109/07/13,0.5321100917431192,0.55601335
109/07/14,0.5229357798165135,0.5534215
109/07/15,0.5321100917431192,0.5511431
109/07/16,0.5229357798165135,0.54857624
109/07/17,0.5321100917431192,0.5468424
109/07/20,0.5412844036697249,0.54384613
109/07/21,0.5137614678899081,0.54215455
109/07/22,0.5229357798165135,0.5352063
109/07/23,0.5229357798165135,0.5309225
109/07/24,0.5045871559633028,0.5312532
109/07/27,0.47706422018348627,0.5294893
109/07/28,0.4678899082568806,0.52152634
109/07/29,0.47706422018348627,0.5089177
109/07/30,0.47706422018348627,0.49999776
109/07/31,0.47706422018348627,0.49863106
109/08/03,0.47706422018348627,0.50032616
109/08/04,0.49541284403669716,0.50484395
109/08/05,0.4862385321100915,0.51045334
109/08/06,0.5321100917431192,0.5162668
109/08/07,0.5137614678899081,0.5220729
109/08/10,0.5321100917431192,0.5300851
109/08/11,0.5229357798165135,0.5371195
109/08/12,0.5321100917431192,0.5432328
109/08/13,0.5412844036697249,0.5471573
109/08/14,0.5412844036697249,0.5511267
109/08/17,0.5412844036697249,0.5521289
109/08/18,0.5412844036697249,0.55291736
109/08/19,0.5229357798165135,0.55181193
109/08/20,0.49541284403669716,0.5488366
109/08/21,0.5229357798165135,0.54062784
109/08/24,0.5229357798165135,0.53448355
109/08/25,0.5137614678899081,0.5317377
109/08/26,0.5229357798165135,0.5314042
109/08/27,0.5137614678899081,0.5322942
109/08/28,0.5137614678899081,0.532586
109/08/31,0.5045871559633028,0.53238714
109/09/01,0.5137614678899081,0.5300091
109/09/02,0.5229357798165135,0.52719975
109/09/03,0.5229357798165135,0.52549386
109/09/04,0.5045871559633028,0.52588695
109/09/07,0.5137614678899081,0.5247252
109/09/08,0.5321100917431192,0.5254297
109/09/09,0.5229357798165135,0.53029513
109/09/10,0.5229357798165135,0.5346714
109/09/11,0.5229357798165135,0.53955066
109/09/14,0.5229357798165135,0.5437732
109/09/15,0.5137614678899081,0.546657
109/09/16,0.5321100917431192,0.5477779
109/09/17,0.5137614678899081,0.5476012
109/09/18,0.5321100917431192,0.54688615
109/09/21,0.5137614678899081,0.5449208
109/09/22,0.49541284403669716,0.5445582
109/09/23,0.49541284403669716,0.54076684
109/09/24,0.44954128440366947,0.53548723
109/09/25,0.4678899082568806,0.5250279
109/09/28,0.5137614678899081,0.5135696
109/09/29,0.5137614678899081,0.51049113
109/09/30,0.5137614678899081,0.5176483
109/10/05,0.5045871559633028,0.53060156
109/10/06,0.5045871559633028,0.5432532
109/10/07,0.49541284403669716,0.54848087
109/10/08,0.5137614678899081,0.54715526
109/10/12,0.5137614678899081,0.5431771
109/10/13,0.5045871559633028,0.538255
109/10/14,0.5045871559633028,0.53570396
109/10/15,0.49541284403669716,0.5339948
109/10/16,0.49541284403669716,0.5334369
109/10/19,0.5229357798165135,0.53318274
109/10/20,0.5137614678899081,0.53389966
109/10/21,0.5045871559633028,0.53704005
109/10/22,0.5045871559633028,0.540465
109/10/23,0.5045871559633028,0.539603
109/10/26,0.5229357798165135,0.53861797
109/10/27,0.5045871559633028,0.5397654
109/10/28,0.5045871559633028,0.5392636
109/10/29,0.49541284403669716,0.53771996
109/10/30,0.4862385321100915,0.5355368
109/11/02,0.5229357798165135,0.5304601
109/11/03,0.5229357798165135,0.5284117
109/11/04,0.5321100917431192,0.53185475
109/11/05,0.5412844036697249,0.53785044
109/11/06,0.5321100917431192,0.5457299
109/11/09,0.5504587155963301,0.5535989
109/11/10,0.5779816513761467,0.55999357
109/11/11,0.6055045871559632,0.5658973
109/11/12,0.5779816513761467,0.5766476
109/11/13,0.5779816513761467,0.5883928
109/11/16,0.5871559633027523,0.59686077
109/11/17,0.5688073394495414,0.60101825
109/11/18,0.5779816513761467,0.60330224
109/11/19,0.596330275229358,0.6029469
109/11/20,0.5871559633027523,0.5963578
109/11/23,0.596330275229358,0.5987574
109/11/24,0.5779816513761467,0.6048757
109/11/25,0.596330275229358,0.6090474
109/11/26,0.596330275229358,0.6105833
109/11/27,0.6055045871559632,0.6141758
109/11/30,0.5596330275229358,0.61472344
109/12/01,0.5871559633027523,0.60359645
109/12/02,0.5871559633027523,0.60029984
109/12/03,0.5779816513761467,0.59626067
109/12/04,0.596330275229358,0.5992243
109/12/07,0.5779816513761467,0.60646677
109/12/08,0.5412844036697249,0.613223
109/12/09,0.5504587155963301,0.60315
109/12/10,0.5504587155963301,0.59377897
109/12/11,0.5779816513761467,0.58877045
109/12/14,0.5688073394495414,0.5899892
109/12/15,0.5504587155963301,0.5982178
109/12/16,0.5779816513761467,0.6012564
109/12/17,0.5779816513761467,0.60250056
109/12/18,0.5596330275229358,0.6056471
109/12/21,0.5779816513761467,0.6070189
109/12/22,0.5688073394495414,0.6083025
